20210112160508604	  309  302    -10    111    650
20210112160508877	  310  301     -8    110    649
20210112160508977	  310  301     -8    110    650
20210112160509077	  310  301     -8    110    650
20210112160509176	  310  301     -8    110    650
20210112160509242	  310  301     -8    110    650
20210112160509341	  309  302    -10    111    650
20210112160509439	  309  302    -10    111    650
20210112160509538	  309  301    -10    110    651
20210112160509603	  309  301    -10    110    651
20210112160509702	  309  301    -10    110    651
20210112160509800	  310  302     -8    111    650
20210112160509898	  309  301    -10    110    651
20210112160509963	  310  301     -8    110    651
20210112160510158	  309  302    -10    111    650
20210112160510255	  309  301    -10    110    651
20210112160510320	  309  301    -10    110    651
20210112160510417	  309  301    -10    110    651
20210112160510513	  309  301    -10    110    651
20210112160510609	  308  302    -11    112    651
20210112160510705	  309  301    -10    110    651
20210112160510769	  308  301    -11    110    651
20210112160510868	  309  300    -10    108    652
20210112160511002	  308  301    -11    110    651
20210112160511101	  309  302    -10    111    650
20210112160511168	  308  303    -11    113    650
20210112160511268	  309  301    -10    110    651
20210112160511368	  309  302    -10    111    650
20210112160511468	  309  301    -10    110    651
20210112160511535	  308  301    -11    110    651
20210112160511635	  309  302    -10    112    651
20210112160511735	  309  300    -10    108    652
20210112160511835	  309  302    -10    111    650
20210112160511901	  309  302    -10    111    651
20210112160512001	  309  300    -10    108    652
20210112160512101	  308  303    -11    113    650
20210112160512201	  308  301    -11    110    651
20210112160512300	  309  302    -10    111    650
20210112160512367	  309  301    -10    110    651
20210112160512467	  309  302    -10    111    651
20210112160512567	  309  302    -10    111    650
20210112160512666	  309  302    -10    111    650
20210112160512766	  308  300    -11    108    652
20210112160512833	  308  301    -11    110    651
20210112160512933	  309  300    -10    108    652
20210112160513033	  308  301    -11    110    651
20210112160513133	  309  300    -10    108    652
20210112160513200	  309  302    -10    111    651
20210112160513300	  308  303    -11    113    650
20210112160513400	  309  301    -10    110    651
20210112160513500	  309  302    -10    111    651
20210112160513601	  309  300    -10    108    652
20210112160513668	  309  302    -10    111    650
20210112160513768	  308  301    -11    110    651
20210112160513868	  308  300    -11    108    652
20210112160513969	  309  300    -10    108    652
20210112160514036	  308  301    -11    110    652
20210112160514137	  309  300    -10    108    652
20210112160514238	  309  300    -10    108    652
20210112160514339	  308  301    -11    110    651
20210112160514440	  309  302    -10    111    651
20210112160514508	  309  300    -10    108    652
20210112160514609	  309  302    -10    111    651
20210112160514710	  308  303    -11    113    650
20210112160514811	  309  300    -10    108    652
20210112160514878	  309  300    -10    108    652
20210112160514978	  308  301    -11    110    651
20210112160515078	  309  300    -10    108    652
20210112160515178	  309  302    -10    111    650
20210112160515278	  308  301    -11    110    651
20210112160515345	  309  300    -10    108    652
20210112160515445	  309  300    -10    108    652
20210112160515545	  309  302    -10    111    650
20210112160515645	  310  303     -8    113    649
20210112160515745	  309  300    -10    108    652
20210112160515812	  309  302    -10    111    650
20210112160515912	  308  300    -11    108    652
20210112160516012	  310  301     -8    110    649
20210112160516112	  316  298      1    102    636
20210112160516212	  320  296      8     97    621
20210112160516279	  321  295      9     94    617
20210112160516379	  326  293     17     90    607
20210112160516479	  333  291     28     85    598
20210112160516579	  334  286     29     76    589
20210112160516679	  342  282     41     69    580
20210112160516779	  345  279     45     63    570
20210112160516845	  348  275     49     56    563
20210112160516945	  354  269     57     47    555
20210112160517045	  359  264     63     39    546
20210112160517145	  365  258     70     30    537
20210112160517245	  370  253     76     22    529
20210112160517312	  372  248     78     15    524
20210112160517412	  378  242     86      7    520
20210112160517512	  384  232     92     -6    511
20210112160517612	  388  227     97    -13    505
20210112160517712	  395  218    104    -24    497
20210112160517779	  398  213    107    -30    493
20210112160517879	  403  205    113    -41    490
20210112160517979	  404  202    114    -44    488
20210112160518079	  404  199    113    -48    486
20210112160518179	  406  196    116    -52    486
20210112160518246	  409  193    119    -55    485
20210112160518346	  410  192    120    -56    482
20210112160518446	  410  188    119    -61    480
20210112160518546	  411  187    121    -62    480
20210112160518646	  412  185    122    -65    480
20210112160518712	  411  186    121    -64    480
20210112160518813	  409  183    119    -68    482
20210112160518913	  414  182    124    -68    478
20210112160519013	  413  178    123    -74    478
20210112160519113	  416  176    126    -76    477
20210112160519213	  416  174    126    -78    475
20210112160519279	  420  171    131    -82    475
20210112160519379	  419  171    129    -82    474
20210112160519479	  418  169    128    -84    476
20210112160519579	  420  166    130    -88    475
20210112160519679	  421  164    132    -90    474
20210112160519746	  420  165    130    -89    474
20210112160519846	  422  161    133    -94    473
20210112160519946	  422  161    133    -94    474
20210112160520046	  425  159    136    -96    472
20210112160520146	  424  158    135    -97    472
20210112160520213	  423  157    133    -98    472
20210112160520313	  422  160    132    -95    472
20210112160520413	  423  156    133   -100    471
20210112160520513	  423  155    133   -101    471
20210112160520580	  423  153    133   -103    472
20210112160520680	  426  154    137   -102    472
20210112160520780	  425  153    135   -103    470
20210112160520946	  425  152    135   -104    471
20210112160521014	  425  152    135   -104    471
20210112160521115	  425  151    136   -106    471
20210112160521216	  423  149    133   -108    472
20210112160521317	  425  150    135   -107    471
20210112160521418	  426  150    136   -107    470
20210112160521486	  426  149    137   -108    471
20210112160521587	  426  148    136   -109    470
20210112160521688	  428  148    138   -109    469
20210112160521790	  427  147    137   -110    470
20210112160521891	  426  149    136   -108    469
20210112160521992	  426  149    136   -108    469
20210112160522059	  426  147    136   -110    470
20210112160522158	  428  145    139   -113    469
20210112160522258	  427  146    137   -111    469
20210112160522358	  427  142    138   -117    470
20210112160522425	  430  141    141   -118    469
20210112160522525	  428  141    138   -117    468
20210112160522624	  427  142    137   -116    469
20210112160522724	  430  138    141   -121    468
20210112160522824	  426  139    136   -120    470
20210112160522891	  427  139    137   -120    469
20210112160522990	  428  141    138   -117    469
20210112160523090	  429  138    139   -121    466
20210112160523190	  429  139    139   -120    468
20210112160523290	  428  138    138   -121    468
20210112160523357	  428  136    138   -124    469
20210112160523456	  428  137    138   -122    468
20210112160523556	  428  136    138   -123    468
20210112160523656	  429  136    139   -123    467
20210112160523756	  429  136    139   -123    467
20210112160523856	  430  133    141   -127    468
20210112160523922	  430  135    140   -124    467
20210112160524022	  432  134    143   -125    467
20210112160524122	  431  133    142   -127    468
20210112160524222	  432  136    143   -123    467
20210112160524322	  430  135    140   -124    467
20210112160524422	  430  137    140   -122    467
20210112160524522	  430  137    140   -122    468
20210112160524588	  429  135    140   -125    470
20210112160524688	  431  136    141   -123    467
20210112160524788	  429  138    139   -121    468
20210112160524888	  431  136    142   -123    468
20210112160524988	  430  135    140   -124    468
20210112160525088	  431  135    142   -125    468
20210112160525155	  430  133    141   -127    468
20210112160525254	  432  134    143   -126    468
20210112160525354	  431  135    142   -124    468
20210112160525454	  429  132    139   -128    468
20210112160525554	  432  132    143   -128    467
20210112160525621	  431  132    141   -128    467
20210112160525721	  432  132    143   -128    467
20210112160525821	  431  131    141   -129    466
20210112160525921	  431  131    142   -129    467
20210112160525987	  433  130    144   -130    467
20210112160526087	  433  129    144   -132    467
20210112160526187	  433  128    144   -133    466
20210112160526287	  434  129    145   -132    467
20210112160526387	  432  129    142   -131    466
20210112160526487	  431  131    142   -129    467
20210112160526553	  433  128    144   -133    467
20210112160526653	  434  129    145   -132    467
20210112160526753	  431  130    141   -130    466
20210112160526853	  432  131    142   -129    466
20210112160526920	  432  131    143   -129    467
20210112160527020	  433  130    144   -130    467
20210112160527120	  433  129    144   -132    467
20210112160527220	  432  131    142   -129    466
20210112160527319	  432  129    143   -132    467
20210112160527419	  434  128    145   -133    467
20210112160527486	  431  129    141   -132    467
20210112160527586	  435  126    146   -135    466
20210112160527686	  432  127    143   -134    467
20210112160527786	  433  127    144   -134    468
20210112160527886	  434  125    145   -137    467
20210112160527952	  434  126    145   -135    467
20210112160528052	  434  125    145   -137    467
20210112160528219	  433  125    144   -137    467
20210112160528319	  434  125    145   -137    467
20210112160528385	  434  124    145   -138    468
20210112160528485	  433  125    144   -137    468
20210112160528585	  431  136    141   -123    467
20210112160528685	  424  151    135   -106    473
20210112160528785	  424  157    135    -99    474
20210112160528852	  420  165    131    -89    475
20210112160528952	  411  176    121    -77    483
20210112160529051	  404  192    114    -57    488
20210112160529151	  405  197    115    -51    488
20210112160529251	  399  205    109    -41    497
20210112160529351	  396  213    106    -31    501
20210112160529451	  392  222    103    -19    508
20210112160529551	  381  232     89     -6    515
20210112160529651	  375  243     83      8    526
20210112160529751	  370  252     77     21    531
20210112160529851	  362  262     67     36    544
20210112160529917	  356  264     59     39    551
20210112160530017	  351  271     53     50    564
20210112160530117	  343  279     42     63    574
20210112160530251	  334  287     29     78    591
20210112160530350	  329  291     22     86    603
20210112160530417	  330  290     24     85    606
20210112160530517	  330  290     24     84    604
20210112160530617	  328  290     20     85    607
20210112160530717	  328  292     21     88    610
20210112160530817	  325  294     16     92    610
20210112160530883	  325  293     16     90    609
20210112160530983	  325  294     16     92    612
20210112160531116	  324  294     14     92    615
20210112160531183	  323  294     13     92    612
20210112160531283	  323  294     13     92    615
20210112160531383	  324  294     14     93    616
20210112160531483	  324  294     14     93    618
20210112160531583	  322  294     11     92    616
20210112160531683	  324  295     14     94    617
20210112160531783	  323  296     13     96    620
20210112160531883	  322  295     11     94    617
20210112160531982	  322  296     11     96    619
20210112160532082	  321  296      9     96    620
20210112160532249	  327  292     19     88    605
20210112160532349	  334  288     29     80    594
20210112160532449	  336  285     32     74    586
20210112160532549	  344  280     44     65    578
20210112160532649	  349  274     51     55    568
20210112160532749	  354  270     57     48    558
20210112160532815	  357  266     61     42    552
20210112160532915	  366  259     73     31    542
20210112160533015	  369  252     75     21    533
20210112160533115	  377  247     85     14    526
20210112160533215	  380  237     89      0    520
20210112160533282	  386  234     96     -3    514
20210112160533381	  390  225    100    -15    507
20210112160533515	  397  215    107    -28    500
20210112160533581	  402  209    113    -36    496
20210112160533714	  406  198    117    -50    490
20210112160533781	  411  191    122    -58    486
20210112160533881	  415  183    126    -68    482
20210112160533981	  421  171    133    -82    479
20210112160534081	  422  169    134    -85    478
20210112160534214	  422  166    133    -88    476
20210112160534314	  426  162    138    -93    476
20210112160534414	  424  159    136    -97    476
20210112160534514	  424  161    136    -94    476
20210112160534614	  425  158    136    -98    474
20210112160534714	  426  154    138   -103    475
20210112160534814	  427  155    139   -102    475
20210112160534914	  427  153    139   -104    474
20210112160535014	  429  152    141   -105    472
20210112160535113	  428  150    140   -107    473
20210112160535247	  429  148    141   -110    474
20210112160535313	  429  147    141   -111    473
20210112160535413	  428  145    140   -114    474
20210112160535513	  429  146    141   -113    474
20210112160535613	  429  144    141   -115    473
20210112160535746	  430  141    142   -119    474
20210112160535846	  429  144    141   -115    473
20210112160535946	  430  139    142   -121    474
20210112160536046	  430  138    142   -122    471
20210112160536179	  430  139    141   -120    471
20210112160536279	  432  137    144   -123    471
20210112160536379	  432  136    144   -124    470
20210112160536512	  433  136    145   -124    471
20210112160536612	  432  133    144   -128    470
20210112160536712	  434  132    146   -128    469
20210112160536812	  432  129    144   -133    470
20210112160536945	  435  130    147   -131    469
20210112160537045	  435  130    147   -131    469
20210112160537145	  435  129    147   -132    469
20210112160537246	  434  131    146   -130    470
20210112160537346	  434  128    146   -133    469
20210112160537514	  436  126    148   -136    470
20210112160537648	  436  128    148   -134    470
20210112160537749	  432  127    144   -135    470
20210112160537849	  433  132    145   -129    471
20210112160537950	  434  127    146   -135    469
20210112160538084	  436  126    148   -136    469
20210112160538184	  435  126    147   -136    469
20210112160538284	  437  126    150   -136    471
20210112160538417	  435  126    147   -136    470
20210112160538517	  435  125    147   -137    469
20210112160538617	  438  125    150   -137    469
20210112160538717	  436  125    148   -137    469
20210112160538851	  433  127    145   -135    470
20210112160538951	  437  125    149   -137    469
20210112160539051	  436  123    148   -140    469
20210112160539184	  437  122    150   -141    470
20210112160539284	  437  124    149   -138    470
20210112160539384	  436  123    148   -140    470
20210112160539484	  435  124    147   -139    470
20210112160539618	  437  123    150   -140    471
20210112160539718	  434  120    147   -144    472
20210112160539818	  436  120    149   -144    471
20210112160539951	  437  122    150   -141    470
20210112160540051	  434  122    146   -141    471
20210112160540151	  439  120    151   -143    468
20210112160540251	  438  119    151   -145    469
20210112160540385	  438  119    151   -144    469
20210112160540485	  437  120    149   -143    470
20210112160540585	  437  123    149   -139    469
20210112160540718	  438  122    151   -141    470
20210112160540818	  437  118    149   -145    467
20210112160540918	  438  119    150   -144    469
20210112160541018	  437  119    149   -144    468
20210112160541151	  438  118    150   -146    469
20210112160541251	  439  120    151   -143    468
20210112160541351	  438  118    150   -146    469
20210112160541485	  439  118    152   -146    469
20210112160541585	  438  118    150   -146    469
20210112160541685	  438  119    151   -144    469
20210112160541785	  439  118    152   -145    469
20210112160541918	  436  119    148   -144    469
20210112160542018	  438  119    150   -144    468
20210112160542118	  439  118    151   -145    468
20210112160542252	  438  117    150   -147    469
20210112160542352	  435  116    148   -149    472
20210112160542452	  438  119    150   -144    469
20210112160542585	  440  117    152   -146    467
20210112160542685	  438  119    150   -144    469
20210112160542785	  439  116    151   -148    468
20210112160542885	  439  116    152   -148    469
20210112160543019	  437  118    149   -146    470
20210112160543119	  438  116    150   -148    469
20210112160543219	  436  116    149   -149    471
20210112160543352	  438  116    150   -148    469
20210112160543452	  439  116    152   -148    468
20210112160543552	  437  120    150   -144    471
20210112160543652	  438  116    150   -148    469
20210112160543785	  438  114    151   -151    470
20210112160543885	  439  116    152   -148    468
20210112160543985	  439  115    151   -149    468
20210112160544119	  439  116    151   -148    468
20210112160544219	  438  115    150   -149    469
20210112160544319	  438  115    150   -149    469
20210112160544452	  438  114    150   -150    468
20210112160544552	  440  114    153   -150    468
20210112160544652	  439  118    152   -145    469
20210112160544786	  435  142    148   -117    473
20210112160544886	  426  148    137   -110    474
20210112160544986	  429  157    142    -99    476
20210112160545086	  421  167    133    -88    480
20210112160545219	  414  182    126    -69    485
20210112160545319	  406  195    117    -54    491
20210112160545419	  404  202    116    -45    496
20210112160545519	  399  210    110    -35    500
20210112160545653	  389  224     99    -17    512
20210112160545753	  384  235     94     -2    518
20210112160545853	  375  244     83     10    528
20210112160545986	  368  257     75     28    540
20210112160546086	  358  264     62     39    552
20210112160546186	  351  273     53     53    562
20210112160546286	  346  280     47     65    574
20210112160546386	  337  286     34     76    589
20210112160546519	  331  289     25     81    595
20210112160546619	  334  288     29     80    595
20210112160546719	  332  287     26     78    595
20210112160546853	  330  288     23     81    602
20210112160546953	  329  292     22     88    604
20210112160547053	  328  291     20     86    604
20210112160547186	  327  292     19     88    605
20210112160547286	  327  293     19     90    608
20210112160547386	  327  292     19     88    610
20210112160547486	  327  292     19     88    608
20210112160547620	  325  294     16     92    610
20210112160547720	  325  294     16     91    609
20210112160547820	  325  294     16     92    610
20210112160547953	  326  293     17     90    612
20210112160548053	  325  294     16     92    615
20210112160548153	  324  294     14     92    613
20210112160548253	  325  294     16     92    612
20210112160548387	  333  288     28     80    596
20210112160548487	  339  283     37     71    589
20210112160548587	  342  279     41     64    579
20210112160548720	  349  273     51     54    568
20210112160548820	  355  269     58     47    556
20210112160548920	  362  262     67     36    546
20210112160549020	  369  256     76     27    539
20210112160549153	  375  246     83     12    527
20210112160549253	  381  238     90      1    520
20210112160549354	  389  230     99     -9    512
20210112160549487	  393  218    103    -25    504
20210112160549587	  400  209    111    -36    499
20210112160549687	  404  199    115    -49    495
20210112160549787	  410  193    121    -56    488
20210112160549920	  416  180    127    -71    481
20210112160550020	  422  169    134    -85    477
20210112160550120	  424  163    136    -92    476
20210112160550220	  425  159    137    -97    475
20210112160550354	  429  151    141   -106    474
20210112160550454	  428  149    140   -109    473
20210112160550554	  428  148    140   -110    473
20210112160550654	  430  144    142   -115    472
20210112160550787	  432  141    145   -119    473
20210112160550887	  431  138    143   -122    471
20210112160550987	  432  135    144   -126    472
20210112160551087	  431  136    143   -124    471
20210112160551221	  436  134    149   -127    472
20210112160551321	  432  133    143   -127    470
20210112160551421	  435  132    147   -129    469
20210112160551554	  435  130    147   -131    468
20210112160551654	  434  130    146   -131    469
20210112160551754	  432  130    144   -131    470
20210112160551887	  433  129    145   -132    470
20210112160551988	  435  128    147   -133    469
20210112160552088	  435  127    147   -135    470
20210112160552188	  434  127    146   -135    470
20210112160552288	  435  125    147   -137    470
20210112160552421	  436  126    148   -136    470
20210112160552521	  439  125    152   -137    469
20210112160552621	  438  124    150   -138    469
20210112160552754	  439  121    152   -142    470
20210112160552854	  438  122    151   -141    470
20210112160552954	  438  120    150   -143    469
20210112160553054	  438  121    151   -142    470
20210112160553188	  437  118    149   -145    468
20210112160553288	  435  119    146   -144    467
20210112160553388	  437  117    148   -146    466
20210112160553521	  436  118    147   -145    467
20210112160553621	  433  117    144   -146    468
20210112160553721	  435  115    146   -148    465
20210112160553821	  438  116    150   -147    467
20210112160553955	  437  117    148   -146    466
20210112160554055	  436  116    147   -147    465
20210112160554155	  437  118    149   -145    467
20210112160554255	  436  116    147   -147    467
20210112160554388	  436  116    147   -147    467
20210112160554488	  434  114    145   -150    467
20210112160554588	  436  116    148   -148    468
20210112160554722	  436  115    147   -148    466
20210112160554822	  437  116    148   -147    467
20210112160554922	  437  113    148   -151    466
20210112160555022	  438  112    149   -152    466
20210112160555155	  437  116    149   -148    467
20210112160555255	  437  113    148   -150    465
20210112160555355	  438  114    150   -150    467
20210112160555488	  438  112    149   -152    465
20210112160555588	  437  114    148   -149    465
20210112160555688	  436  114    147   -150    466
20210112160555788	  439  112    151   -152    466
20210112160555922	  437  113    148   -151    467
20210112160556022	  435  110    146   -155    467
20210112160556122	  438  113    150   -151    467
20210112160556222	  435  112    146   -152    467
20210112160556355	  437  112    148   -152    465
20210112160556455	  438  112    150   -152    467
20210112160556555	  433  110    144   -155    467
20210112160556689	  437  112    148   -152    466
20210112160556789	  437  112    148   -152    466
20210112160556889	  437  111    148   -153    465
20210112160556989	  437  108    148   -157    465
20210112160557122	  437  110    148   -155    466
20210112160557222	  435  107    146   -158    467
20210112160557322	  438  107    149   -158    465
20210112160557456	  438  108    149   -156    465
20210112160557556	  437  111    148   -153    465
20210112160557656	  438  107    149   -157    464
20210112160557756	  438  109    149   -155    465
20210112160557889	  438  107    149   -158    465
20210112160557989	  436  109    147   -155    465
20210112160558089	  438  108    149   -156    465
20210112160558222	  441  107    152   -157    464
20210112160558322	  436  108    147   -157    466
20210112160558422	  437  110    149   -155    467
20210112160558522	  438  107    149   -157    464
20210112160558656	  436  108    147   -157    465
20210112160558756	  436  108    147   -157    467
20210112160558856	  437  108    148   -156    465
20210112160558989	  438  108    149   -157    465
20210112160559089	  436  107    147   -158    466
20210112160559189	  435  106    146   -160    468
20210112160559289	  436  107    147   -158    465
20210112160559423	  438  105    149   -160    465
20210112160559523	  439  108    151   -157    466
20210112160559623	  439  107    150   -158    465
20210112160559756	  438  106    149   -159    464
20210112160559856	  441  108    153   -157    466
20210112160559956	  436  109    147   -155    465
20210112160600090	  436  108    147   -157    467
20210112160600223	  439  107    150   -158    465
20210112160600323	  437  107    148   -158    466
20210112160600423	  438  107    149   -158    465
20210112160600556	  430  110    141   -156    471
20210112160600656	  440  106    152   -159    466
20210112160600790	  433  121    144   -142    468
20210112160600890	  431  132    142   -129    470
20210112160600990	  425  145    136   -114    473
20210112160601123	  422  157    133    -99    475
20210112160601223	  418  169    129    -85    478
20210112160601323	  414  178    125    -74    481
20210112160601423	  407  189    118    -61    488
20210112160601557	  400  201    110    -46    495
20210112160601657	  393  214    102    -30    500
20210112160601757	  386  222     95    -19    511
20210112160601890	  381  238     90      1    519
20210112160601990	  373  247     80     14    529
20210112160602090	  367  257     73     28    538
20210112160602223	  358  267     62     44    553
20210112160602323	  348  274     49     55    565
20210112160602457	  342  282     41     69    584
20210112160602590	  335  287     31     78    592
20210112160602690	  335  287     31     78    594
20210112160602823	  335  287     31     78    594
20210112160602924	  332  287     26     79    597
20210112160603024	  333  289     28     82    599
20210112160603157	  331  288     25     81    602
20210112160603257	  331  290     25     84    602
20210112160603390	  330  289     24     83    605
20210112160603490	  328  291     20     86    604
20210112160603590	  327  291     19     87    608
20210112160603724	  329  291     22     86    606
20210112160603824	  327  292     19     88    607
20210112160603957	  327  292     19     88    608
20210112160604057	  325  291     16     87    611
20210112160604191	  328  292     21     88    608
20210112160604291	  325  293     16     90    609
20210112160604424	  332  288     26     80    598
20210112160604524	  339  282     37     70    590
20210112160604624	  342  280     41     65    578
20210112160604757	  349  272     51     52    568
20210112160604857	  358  268     63     45    557
20210112160604957	  359  263     63     37    547
20210112160605057	  368  256     75     27    537
20210112160605191	  376  245     84     11    527
20210112160605324	  385  235     95     -2    517
20210112160605424	  390  225    101    -15    511
20210112160605558	  395  214    105    -30    502
20210112160605658	  403  204    115    -43    498
20210112160605791	  406  193    117    -56    489
20210112160605891	  417  184    129    -67    484
20210112160606024	  418  170    129    -84    478
20210112160606124	  424  159    136    -97    476
20210112160606258	  426  153    138   -104    476
20210112160606358	  429  152    141   -105    473
20210112160606491	  427  150    139   -108    474
20210112160606591	  430  145    142   -113    472
20210112160606725	  430  142    142   -117    474
20210112160606825	  430  142    142   -117    473
20210112160606958	  433  138    145   -122    471
20210112160607091	  432  134    143   -126    470
20210112160607225	  432  134    144   -126    470
20210112160607325	  433  132    145   -129    470
20210112160607458	  436  127    148   -135    469
20210112160607591	  436  128    148   -133    469
20210112160607725	  435  128    147   -134    471
20210112160607825	  434  127    146   -135    470
20210112160607925	  437  126    150   -136    471
20210112160608058	  436  124    148   -138    469
20210112160608192	  434  123    146   -140    471
20210112160608325	  437  123    150   -140    470
20210112160608425	  437  122    150   -141    470
20210112160608558	  438  121    151   -142    469
20210112160608692	  438  121    151   -142    470
20210112160608825	  436  121    149   -142    470
20210112160608925	  435  119    148   -145    472
20210112160609058	  437  120    150   -144    470
20210112160609158	  438  117    150   -146    467
20210112160609292	  438  118    151   -146    469
20210112160609392	  439  119    151   -144    468
20210112160609525	  438  115    150   -149    468
20210112160609659	  439  115    151   -149    468
20210112160609759	  439  116    151   -148    468
20210112160609892	  439  114    151   -150    467
20210112160610025	  439  116    152   -148    469
20210112160610125	  438  114    150   -150    468
20210112160610259	  437  113    149   -152    469
20210112160610392	  438  115    150   -149    468
20210112160610492	  441  112    154   -153    468
20210112160610625	  440  112    153   -153    468
20210112160610759	  439  112    151   -153    468
20210112160610892	  439  112    151   -152    468
20210112160610992	  439  114    152   -150    469
20210112160611126	  440  113    152   -151    467
20210112160611259	  437  111    149   -154    468
20210112160611392	  440  112    153   -153    469
20210112160611492	  436  110    148   -155    469
20210112160611626	  440  110    152   -155    467
20210112160611759	  441  112    154   -153    469
20210112160611892	  440  111    152   -154    468
20210112160611993	  438  110    150   -155    469
20210112160612126	  439  112    152   -153    469
20210112160612226	  442  109    155   -156    467
20210112160612359	  437  109    150   -157    470
20210112160612493	  439  110    151   -155    469
20210112160612626	  440  109    152   -156    468
20210112160612759	  441  109    154   -156    468
20210112160612859	  439  110    151   -155    469
20210112160612993	  442  107    154   -158    466
20210112160613126	  441  109    154   -156    468
20210112160613260	  442  107    155   -158    467
20210112160613360	  439  109    152   -157    469
20210112160613493	  441  109    154   -156    468
20210112160613626	  441  108    154   -157    468
20210112160613726	  441  109    154   -156    468
20210112160613860	  440  108    153   -158    468
20210112160613993	  442  107    155   -159    468
20210112160614126	  440  108    152   -157    468
20210112160614226	  442  107    155   -159    468
20210112160614360	  444  106    157   -160    467
20210112160614493	  442  107    155   -159    469
20210112160614626	  441  107    154   -159    468
20210112160614727	  441  109    154   -157    469
20210112160614860	  441  108    154   -157    468
20210112160614993	  442  108    155   -157    468
20210112160615127	  441  107    154   -159    468
20210112160615260	  443  107    156   -159    468
20210112160615360	  439  107    152   -159    469
20210112160615493	  440  107    153   -159    470
20210112160615627	  442  104    155   -162    468
20210112160615760	  439  107    151   -159    468
20210112160615860	  441  107    154   -159    469
20210112160615994	  441  105    154   -161    468
20210112160616127	  442  106    155   -160    468
20210112160616260	  438  107    151   -159    470
20210112160616360	  440  106    153   -160    469
20210112160616494	  441  105    154   -161    468
20210112160616627	  439  106    152   -161    470
20210112160616760	  442  105    155   -161    468
20210112160616894	  438  118    151   -146    469
20210112160616994	  433  132    145   -129    472
20210112160617127	  427  145    139   -114    476
20210112160617261	  424  160    136    -96    477
20210112160617361	  419  172    131    -81    481
20210112160617494	  413  185    125    -66    486
20210112160617627	  402  200    113    -48    495
20210112160617761	  399  211    110    -34    500
20210112160617861	  391  220    101    -22    508
20210112160617994	  382  236     91     -1    518
20210112160618127	  374  249     82     17    531
20210112160618261	  363  259     69     31    545
20210112160618361	  355  267     58     44    556
20210112160618494	  348  277     49     60    571
20210112160618628	  338  284     35     73    587
20210112160618761	  337  285     34     75    590
20210112160618861	  335  286     31     76    591
20210112160618994	  335  288     31     80    596
20210112160619128	  333  288     28     80    597
20210112160619261	  332  287     26     79    596
20210112160619394	  330  290     23     84    599
20210112160619494	  329  290     22     84    600
20210112160619628	  329  291     22     86    601
20210112160619761	  328  291     20     86    605
20210112160619894	  329  292     22     88    606
20210112160619994	  328  292     20     88    604
20210112160620128	  328  292     20     88    606
20210112160620261	  329  291     22     87    609
20210112160620395	  327  292     19     88    608
20210112160620528	  334  288     29     80    595
20210112160620628	  341  282     40     69    585
20210112160620761	  344  278     44     62    574
20210112160620895	  356  269     60     47    559
20210112160621028	  361  261     66     35    549
20210112160621128	  367  255     73     25    538
20210112160621261	  375  245     83     11    529
20210112160621362	  383  238     93      1    519
20210112160621495	  389  225     99    -15    512
20210112160621628	  399  213    110    -31    500
20210112160621762	  405  201    117    -46    495
20210112160621862	  410  192    122    -57    489
20210112160621995	  417  178    129    -74    482
20210112160622128	  422  166    134    -89    479
20210112160622228	  426  158    138    -98    474
20210112160622362	  428  150    140   -107    473
20210112160622495	  431  142    143   -117    472
20210112160622628	  431  136    143   -124    471
20210112160622729	  432  135    144   -125    471
20210112160622862	  435  133    147   -128    471
20210112160622995	  435  131    147   -130    469
20210112160623129	  435  133    147   -128    470
20210112160623229	  436  129    148   -132    470
20210112160623362	  436  126    149   -136    471
20210112160623495	  437  124    149   -138    470
20210112160623629	  435  123    147   -140    470
20210112160623762	  437  122    150   -141    470
20210112160623862	  436  122    149   -141    471
20210112160623996	  437  120    149   -143    469
20210112160624129	  436  120    149   -144    471
20210112160624262	  438  119    151   -145    470
20210112160624362	  437  118    149   -145    468
20210112160624496	  438  116    150   -148    468
20210112160624629	  439  115    151   -149    468
20210112160624762	  440  114    153   -150    468
20210112160624862	  439  115    152   -149    469
20210112160624996	  436  113    148   -152    470
20210112160625129	  440  116    153   -148    469
20210112160625263	  439  114    152   -150    469
20210112160625396	  441  112    153   -152    467
20210112160625496	  441  113    154   -152    469
20210112160625629	  439  111    151   -154    467
20210112160625763	  439  112    152   -153    470
20210112160625863	  438  111    151   -154    470
20210112160625996	  441  111    154   -154    468
20210112160626129	  440  111    153   -154    469
20210112160626263	  440  110    152   -155    468
20210112160626363	  440  109    153   -156    468
20210112160626496	  441  113    154   -151    468
20210112160626629	  439  110    152   -155    469
20210112160626763	  440  111    153   -154    468
20210112160626863	  445  108    158   -157    467
20210112160626996	  442  109    155   -156    467
20210112160627130	  440  111    153   -154    469
20210112160627263	  442  107    155   -159    468
20210112160627363	  440  111    153   -154    469
20210112160627496	  440  109    153   -156    468
20210112160627630	  441  108    153   -157    467
20210112160627763	  442  107    155   -159    469
20210112160627863	  440  110    153   -155    468
20210112160627996	  440  108    153   -157    468
20210112160628130	  441  108    154   -157    468
20210112160628263	  440  107    153   -159    468
20210112160628363	  440  106    152   -159    466
20210112160628497	  438  105    150   -161    466
20210112160628630	  442  104    154   -162    466
20210112160628763	  438  107    150   -158    466
20210112160628863	  438  108    150   -157    467
20210112160628997	  438  105    150   -161    467
20210112160629130	  439  106    151   -159    466
20210112160629263	  441  103    153   -163    466
20210112160629363	  436  102    148   -165    469
20210112160629497	  440  105    152   -160    466
20210112160629630	  441  104    153   -162    466
20210112160629764	  437  104    148   -162    466
20210112160629897	  438  105    149   -160    465
20210112160629997	  440  105    152   -160    465
20210112160630130	  439  105    150   -160    465
20210112160630264	  439  103    150   -162    464
20210112160630397	  439  106    151   -159    466
20210112160630497	  441  103    153   -163    465
20210112160630631	  440  105    152   -160    466
20210112160630764	  438  105    149   -160    464
20210112160630897	  439  104    150   -161    465
20210112160630997	  438  108    150   -157    467
20210112160631131	  438  103    149   -163    466
20210112160631264	  436  106    147   -159    466
20210112160631397	  438  105    149   -160    465
20210112160631531	  441  104    153   -161    465
20210112160631631	  440  102    151   -164    464
20210112160631764	  439  104    150   -161    465
20210112160631898	  439  103    151   -163    466
20210112160632031	  438  102    149   -164    465
20210112160632131	  441  100    152   -166    464
20210112160632264	  440  104    152   -162    466
20210112160632398	  441  101    152   -164    464
20210112160632531	  440  101    151   -165    465
20210112160632631	  439  101    150   -165    466
20210112160632764	  441  101    153   -165    464
20210112160632898	  440  104    152   -161    465
20210112160632998	  434  118    145   -145    467
20210112160633131	  431  131    142   -130    469
20210112160633265	  428  144    139   -114    471
20210112160633398	  420  161    131    -94    476
20210112160633498	  418  170    129    -84    479
20210112160633631	  411  184    122    -67    484
20210112160633765	  403  196    113    -52    490
20210112160633898	  395  216    105    -27    500
20210112160633998	  389  223     99    -18    509
20210112160634131	  381  237     89      0    516
20210112160634265	  372  249     79     17    531
20210112160634398	  362  262     67     36    543
20210112160634498	  353  270     56     48    558
20210112160634632	  345  279     45     63    572
20210112160634765	  337  284     34     73    587
20210112160634898	  337  285     34     74    589
20210112160634998	  335  286     31     76    592
20210112160635132	  334  288     29     80    592
20210112160635265	  334  288     29     80    594
20210112160635398	  334  288     30     80    596
20210112160635532	  331  290     25     83    596
20210112160635632	  329  289     22     82    598
20210112160635765	  331  290     25     84    599
20210112160635899	  330  288     23     81    601
20210112160636032	  331  289     25     82    601
20210112160636165	  327  291     19     86    604
20210112160636265	  330  291     24     86    604
20210112160636432	  327  291     19     86    606
20210112160636565	  329  289     22     82    600
20210112160636699	  339  282     37     70    590
20210112160636832	  346  280     47     65    574
20210112160636965	  354  271     57     50    561
20210112160637099	  361  263     66     37    547
20210112160637232	  370  253     78     23    538
20210112160637366	  376  244     84      9    525
20210112160637466	  384  235     94     -2    518
20210112160637599	  394  222    106    -19    510
20210112160637732	  399  210    110    -35    501
20210112160637866	  404  200    115    -47    493
20210112160637966	  408  192    119    -57    490
20210112160638099	  415  178    127    -74    484
20210112160638232	  423  164    135    -91    478
20210112160638366	  425  151    137   -107    476
20210112160638499	  430  145    142   -113    472
20210112160638666	  434  138    147   -122    472
20210112160638766	  431  137    142   -123    470
20210112160638933	  434  133    146   -127    470
20210112160639033	  435  131    147   -129    468
20210112160639166	  436  129    148   -132    469
20210112160639299	  436  126    148   -136    470
20210112160639466	  438  125    150   -137    469
20210112160639566	  436  124    148   -138    470
20210112160639733	  435  122    147   -141    471
20210112160639866	  437  122    150   -141    470
20210112160640000	  436  124    148   -138    470
20210112160640133	  438  122    150   -141    469
20210112160640233	  437  119    149   -144    469
20210112160640400	  439  117    151   -147    468
20210112160640500	  437  117    149   -147    469
20210112160640633	  439  116    151   -148    468
20210112160640766	  440  115    153   -149    468
20210112160640900	  437  113    149   -152    470
20210112160641033	  439  115    151   -149    468
20210112160641167	  439  114    152   -151    470
20210112160641333	  442  112    155   -153    468
20210112160641433	  440  111    152   -153    467
20210112160641600	  441  110    154   -155    468
20210112160641700	  442  109    154   -155    465
20210112160641833	  441  110    153   -155    467
20210112160641967	  440  113    153   -151    468
20210112160642133	  441  108    154   -158    469
20210112160642267	  441  108    154   -157    468
20210112160642367	  440  108    152   -157    467
20210112160642534	  438  109    150   -156    468
20210112160642667	  439  105    150   -160    464
20210112160642800	  441  107    153   -158    465
20210112160642934	  437  105    148   -160    466
20210112160643067	  441  104    153   -162    466
20210112160643200	  440  105    152   -160    465
20210112160643334	  439  105    150   -160    465
20210112160643500	  440  105    152   -160    466
20210112160643634	  438  103    149   -162    464
20210112160643767	  441  102    153   -164    466
20210112160643901	  440  105    152   -160    465
20210112160644034	  440  102    151   -164    464
20210112160644167	  439  104    150   -161    465
20210112160644301	  440  103    151   -162    465
20210112160644434	  438  101    149   -165    464
20210112160644567	  440  104    152   -162    466
20210112160644701	  440  103    152   -163    465
20210112160644867	  442  100    153   -165    463
20210112160645001	  439  102    150   -164    465
20210112160645134	  440  102    151   -164    465
20210112160645267	  440  101    151   -164    463
20210112160645401	  436  100    147   -167    467
20210112160645568	  440  101    152   -165    466
20210112160645701	  440  102    151   -163    464
20210112160645834	  439  101    150   -165    464
20210112160645968	  440  101    151   -165    465
20210112160646134	  440  100    151   -165    463
20210112160646268	  440  101    151   -165    465
20210112160646401	  438   98    149   -169    466
20210112160646534	  440  100    151   -165    463
20210112160646668	  440  100    152   -166    466
20210112160646801	  440  100    151   -166    465
20210112160646935	  441   98    152   -168    464
20210112160647068	  440  101    152   -165    466
20210112160647201	  439   99    150   -167    464
20210112160647368	  440   98    151   -168    464
20210112160647501	  440   99    152   -168    466
20210112160647635	  440  100    151   -166    465
20210112160647768	  439   98    150   -168    464
20210112160647901	  440   98    151   -169    465
20210112160648068	  441   99    153   -168    466
20210112160648202	  441  100    153   -166    466
20210112160648335	  441   98    153   -169    465
20210112160648468	  437   96    148   -171    466
20210112160648635	  442   99    154   -168    466
20210112160648768	  441   99    153   -168    466
20210112160648902	  440   97    151   -170    465
20210112160649035	  441  100    152   -166    464
20210112160649168	  436  121    148   -142    469
20210112160649335	  432  135    143   -125    469
20210112160649469	  423  153    134   -104    474
20210112160649602	  418  166    129    -89    480
20210112160649735	  408  184    118    -67    486
20210112160649902	  404  200    115    -47    492
20210112160650035	  395  213    105    -31    500
20210112160650169	  389  225     99    -15    510
20210112160650302	  378  240     86      4    520
20210112160650469	  366  257     72     28    537
20210112160650602	  357  267     61     44    553
20210112160650736	  346  277     46     60    569
20210112160650869	  339  283     37     71    584
20210112160651036	  340  284     38     72    585
20210112160651169	  338  285     35     75    591
20210112160651302	  337  287     34     78    591
20210112160651436	  333  288     28     80    592
20210112160651602	  333  287     28     78    595
20210112160651736	  332  289     26     82    597
20210112160651869	  330  289     23     82    596
20210112160652003	  332  290     27     84    600
20210112160652136	  330  289     23     82    597
20210112160652303	  328  290     20     84    601
20210112160652469	  329  291     22     86    602
20210112160652603	  329  291     22     86    603
20210112160652736	  333  288     28     80    593
20210112160652903	  343  278     42     62    575
20210112160653036	  350  274     52     55    564
20210112160653170	  360  267     65     43    549
20210112160653303	  365  256     70     27    538
20210112160653436	  374  246     81     12    526
20210112160653603	  384  234     93     -3    514
20210112160653736	  388  226     98    -14    510
20210112160653870	  397  212    107    -32    498
20210112160654003	  404  201    115    -46    493
20210112160654170	  414  183    125    -68    483
20210112160654303	  420  169    131    -85    478
20210112160654437	  427  155    139   -101    474
20210112160654570	  429  147    141   -111    472
20210112160654703	  431  142    143   -117    472
20210112160654870	  432  137    144   -123    470
20210112160655003	  435  133    147   -127    469
20210112160655137	  435  130    147   -131    469
20210112160655270	  437  128    149   -133    469
20210112160655437	  436  126    149   -136    470
20210112160655570	  436  124    149   -139    470
20210112160655704	  435  123    147   -140    471
20210112160655837	  437  123    150   -140    471
20210112160655970	  436  121    149   -143    472
20210112160656137	  439  116    151   -148    468
20210112160656270	  438  117    150   -147    469
20210112160656404	  438  117    150   -146    467
20210112160656537	  438  116    150   -148    469
20210112160656670	  440  117    153   -147    469
20210112160656837	  438  116    150   -148    468
20210112160656971	  438  113    150   -151    468
20210112160657104	  439  113    151   -151    468
20210112160657237	  438  111    150   -154    468
20210112160657371	  442  108    155   -157    467
20210112160657537	  440  110    152   -155    467
20210112160657671	  441  110    153   -155    467
20210112160657804	  439  111    151   -154    468
20210112160657937	  439  110    151   -155    469
20210112160658104	  442  110    155   -155    467
20210112160658238	  441  108    154   -157    467
20210112160658371	  440  108    153   -158    469
20210112160658504	  440  107    152   -158    467
20210112160658638	  444  107    157   -158    468
20210112160658804	  439  107    152   -159    469
20210112160658938	  441  107    154   -159    468
20210112160659071	  440  105    152   -161    466
20210112160659204	  441  104    152   -161    464
20210112160659371	  442  104    154   -161    465
20210112160659505	  439  103    150   -162    464
20210112160659638	  440  105    151   -160    465
20210112160659771	  441  104    153   -162    466
20210112160659938	  442  104    154   -161    465
20210112160700071	  440  103    152   -163    465
20210112160700205	  441  102    153   -164    465
20210112160700338	  441  103    153   -163    466
20210112160700471	  440  102    152   -164    466
20210112160700605	  440  103    152   -163    466
20210112160700772	  440  103    151   -163    465
20210112160700905	  441  102    153   -164    466
20210112160701038	  440  102    151   -163    464
20210112160701172	  440  101    151   -165    465
20210112160701338	  439  101    151   -165    466
20210112160701472	  440  101    151   -165    465
20210112160701605	  442   98    154   -168    464
20210112160701738	  440  100    151   -166    465
20210112160701872	  440   99    152   -168    467
20210112160702039	  440   99    151   -167    464
20210112160702172	  441  101    153   -165    466
20210112160702305	  440   99    151   -167    465
20210112160702439	  442   97    153   -169    463
20210112160702572	  440   98    152   -169    466
20210112160702739	  441   99    153   -168    467
20210112160702872	  439   98    150   -168    464
20210112160703005	  441  101    153   -165    466
20210112160703139	  441  100    153   -166    466
20210112160703305	  441   98    153   -168    465
20210112160703439	  441   99    153   -167    465
20210112160703572	  441   99    153   -167    465
20210112160703706	  441   98    153   -169    465
20210112160703839	  441   98    153   -168    465
20210112160704006	  441   98    153   -168    465
20210112160704139	  442   98    154   -169    466
20210112160704272	  441   99    153   -167    465
20210112160704406	  441   98    153   -169    466
20210112160704539	  440   98    151   -168    465
20210112160704706	  442   96    153   -170    464
20210112160704839	  441   98    153   -169    466
20210112160704973	  441   97    152   -170    464
20210112160705106	  444   98    156   -168    464
20210112160705239	  439  110    151   -155    467
20210112160705406	  432  130    143   -131    469
20210112160705539	  428  145    140   -114    474
20210112160705673	  419  161    129    -94    475
20210112160705806	  417  174    129    -79    482
20210112160705939	  409  187    120    -63    488
20210112160706106	  400  202    111    -45    499
20210112160706240	  393  219    103    -23    506
20210112160706373	  382  232     91     -6    517
20210112160706506	  374  244     82     10    531
20210112160706673	  362  260     67     33    548
20210112160706806	  353  270     56     49    564
20210112160706940	  343  279     43     65    584
20210112160707073	  340  282     38     69    585
20210112160707206	  341  283     40     71    585
20210112160707373	  334  286     29     76    591
20210112160707506	  335  286     31     76    592
20210112160707673	  333  287     28     78    594
20210112160707807	  337  288     34     80    593
20210112160707940	  332  289     26     82    596
20210112160708073	  331  289     25     82    596
20210112160708240	  331  288     25     81    599
20210112160708373	  331  290     25     84    599
20210112160708507	  332  288     27     81    601
20210112160708640	  330  289     23     82    601
20210112160708773	  330  290     23     84    599
20210112160708940	  341  282     39     68    577
20210112160709074	  348  276     49     58    569
20210112160709207	  354  271     57     50    559
20210112160709340	  361  261     66     34    543
20210112160709474	  370  252     77     21    531
20210112160709640	  379  240     87      4    520
20210112160709774	  388  226     98    -14    511
20210112160709940	  399  211    110    -33    499
20210112160710074	  407  198    118    -49    488
20210112160710207	  413  187    125    -63    485
20210112160710341	  420  171    131    -82    478
20210112160710474	  423  159    134    -97    475
20210112160710641	  430  145    142   -113    471
20210112160710774	  432  139    144   -120    470
20210112160710907	  432  134    144   -126    470
20210112160711074	  434  128    146   -133    469
20210112160711207	  435  128    147   -133    469
20210112160711341	  436  122    148   -141    469
20210112160711507	  437  121    149   -142    469
20210112160711641	  436  122    148   -141    468
20210112160711774	  439  119    152   -144    469
20210112160711908	  435  117    147   -147    471
20210112160712074	  439  115    151   -149    467
20210112160712208	  439  114    151   -150    468
20210112160712341	  441  114    154   -150    468
20210112160712474	  437  113    149   -151    468
20210112160712641	  441  113    154   -152    469
20210112160712774	  439  114    151   -150    467
20210112160712908	  441  113    154   -151    468
20210112160713041	  440  112    153   -153    468
20210112160713175	  440  109    152   -156    467
20210112160713341	  440  110    152   -155    467
20210112160713475	  440  110    152   -155    468
20210112160713608	  439  108    151   -158    468
20210112160713741	  441  110    153   -155    467
20210112160713875	  441  110    154   -155    468
20210112160714041	  441  109    154   -156    468
20210112160714175	  440  106    152   -160    468
20210112160714308	  442  105    154   -161    466
20210112160714442	  442  105    155   -161    468
20210112160714575	  441  106    153   -160    467
20210112160714742	  442  105    155   -161    468
20210112160714875	  439  105    151   -161    468
20210112160715008	  447  104    161   -162    468
20210112160715142	  443  104    156   -162    468
20210112160715275	  442  105    155   -161    468
20210112160715442	  442  103    155   -164    469
20210112160715575	  444  102    157   -165    468
20210112160715709	  444  102    157   -165    468
20210112160715842	  441  102    154   -165    469
20210112160716009	  442  101    155   -166    469
20210112160716142	  442  101    155   -166    469
20210112160716275	  442  102    155   -165    469
20210112160716409	  442  101    156   -167    470
20210112160716575	  443   99    157   -169    470
20210112160716742	  443   98    156   -170    469
20210112160716876	  440   98    153   -170    470
20210112160717009	  443  101    156   -166    469
20210112160717142	  440   98    154   -171    471
20210112160717276	  440  102    153   -166    470
20210112160717442	  443   98    156   -170    469
20210112160717576	  443   97    157   -171    470
20210112160717709	  443  100    157   -168    470
20210112160717842	  440   99    153   -169    469
20210112160718009	  442  100    155   -168    469
20210112160718143	  446   96    160   -172    469
20210112160718276	  442   98    155   -170    469
20210112160718409	  442   98    155   -170    468
20210112160718576	  442   99    155   -169    469
20210112160718709	  440   96    153   -173    470
20210112160718876	  443   99    157   -169    469
20210112160719009	  442   98    155   -170    469
20210112160719143	  442   97    155   -171    468
20210112160719276	  443   99    157   -169    470
20210112160719443	  442   97    156   -172    470
20210112160719576	  442   98    155   -170    468
20210112160719710	  443   98    156   -170    469
20210112160719843	  442   98    155   -170    469
20210112160720010	  443   98    156   -170    469
20210112160720176	  442   98    155   -170    470
20210112160720310	  442   96    155   -172    469
20210112160720476	  443   98    156   -170    469
20210112160720643	  442   98    155   -170    469
20210112160720777	  443   99    157   -169    469
20210112160720910	  442   97    155   -171    469
20210112160721043	  442   95    155   -174    469
20210112160721177	  439   94    152   -175    470
20210112160721343	  442  103    155   -164    469
20210112160721477	  438  123    151   -140    472
20210112160721643	  433  136    146   -125    475
20210112160721777	  425  151    137   -107    477
20210112160721944	  419  171    131    -83    481
20210112160722077	  413  186    126    -65    489
20210112160722244	  400  202    111    -45    499
20210112160722377	  395  217    106    -26    505
20210112160722510	  386  230     96     -9    516
20210112160722677	  372  249     80     17    533
20210112160722810	  365  258     72     30    546
20210112160722944	  356  270     61     49    564
20210112160723110	  342  281     41     67    582
20210112160723244	  340  283     38     71    584
20210112160723377	  338  283     35     71    585
20210112160723611	  335  285     31     75    592
20210112160723744	  334  286     29     76    589
20210112160723877	  337  286     34     76    592
20210112160724044	  333  288     28     80    596
20210112160724177	  333  288     28     80    598
20210112160724344	  332  287     26     79    597
20210112160724511	  332  289     26     82    599
20210112160724644	  330  289     23     82    601
20210112160724811	  329  289     22     82    601
20210112160724977	  334  286     29     76    592
20210112160725111	  344  280     44     66    580
20210112160725278	  352  272     55     52    563
20210112160725444	  359  263     63     37    546
20210112160725578	  369  254     76     24    535
20210112160725711	  378  243     87      8    525
20210112160725878	  388  229     98    -10    511
20210112160726011	  396  217    107    -26    502
20210112160726178	  405  201    116    -46    491
20210112160726344	  413  183    125    -68    486
20210112160726478	  421  173    133    -80    478
20210112160726645	  429  152    141   -105    473
20210112160726778	  432  139    144   -121    472
20210112160726945	  433  136    145   -124    471
20210112160727111	  435  129    147   -132    470
20210112160727245	  436  127    149   -135    470
20210112160727411	  436  124    148   -138    467
20210112160727578	  435  119    146   -144    467
20210112160727712	  438  118    150   -145    466
20210112160727878	  436  114    147   -149    465
20210112160728012	  436  115    147   -148    465
20210112160728178	  437  113    148   -151    465
20210112160728345	  436  111    147   -153    466
20210112160728478	  439  112    151   -152    466
20210112160728612	  437  107    148   -158    466
20210112160728778	  439  109    150   -155    465
20210112160728912	  436  111    147   -153    466
20210112160729079	  438  112    149   -152    466
20210112160729245	  438  109    149   -156    466
20210112160729412	  439  107    150   -157    464
20210112160729545	  438  106    150   -160    467
20210112160729712	  441  102    153   -164    466
20210112160729845	  442  104    154   -161    465
20210112160730012	  436  103    147   -163    465
20210112160730179	  440  101    151   -164    463
20210112160730312	  442  102    154   -164    466
20210112160730479	  440  100    151   -166    464
20210112160730612	  438  100    149   -166    466
20210112160730779	  441   99    152   -167    463
20210112160730946	  441  101    153   -165    466
20210112160731079	  439  103    151   -163    466
20210112160731246	  440   99    151   -167    465
20210112160731412	  440  100    151   -166    464
20210112160731546	  441   98    153   -169    465
20210112160731713	  439  100    150   -166    465
20210112160731879	  440  100    151   -166    465
20210112160732046	  441   98    152   -168    464
20210112160732179	  441   98    153   -169    465
20210112160732346	  441   98    153   -169    466
20210112160732513	  441   98    153   -169    465
20210112160732679	  441   98    153   -169    466
20210112160732813	  439   97    150   -169    464
20210112160732980	  440   96    151   -171    464
20210112160733146	  440   98    151   -168    464
20210112160733280	  441   98    153   -169    466
20210112160733446	  438   95    150   -173    467
20210112160733613	  441   97    153   -170    466
20210112160733746	  440   96    151   -171    464
20210112160733913	  442   93    154   -174    464
20210112160734047	  441   96    153   -171    465
20210112160734280	  440   96    151   -171    465
20210112160734447	  441   96    152   -171    464
20210112160734580	  441   96    153   -171    465
20210112160734747	  441   97    153   -170    465
20210112160734913	  441   95    153   -172    465
20210112160735080	  441   95    153   -172    465
20210112160735213	  441   95    152   -172    464
20210112160735380	  441   95    153   -172    465
20210112160735547	  442   97    154   -170    466
20210112160735680	  441   96    153   -172    467
20210112160735847	  439   93    150   -175    465
20210112160736014	  439   98    151   -169    467
20210112160736147	  444   93    156   -175    465
20210112160736314	  446   89    159   -179    465
20210112160736480	  443   96    172   -190    515
20210112160736647	  441   93    152   -174    464
20210112160736781	  442   94    154   -173    465
20210112160736947	  442   93    154   -175    466
20210112160737114	  441   93    152   -174    465
20210112160737281	  442   92    154   -176    465
20210112160737414	  442   97    153   -169    463
20210112160737581	  436  122    147   -140    467
20210112160737714	  429  126    140   -137    472
20210112160737881	  427  150    139   -108    476
20210112160738048	  418  166    129    -89    479
20210112160738214	  411  187    122    -63    487
20210112160738348	  401  202    112    -45    497
20210112160738514	  393  221    103    -21    505
20210112160738681	  380  237     89      0    521
20210112160738814	  371  249     78     17    531
20210112160738981	  358  263     62     38    553
20210112160739148	  347  277     48     61    577
20210112160739281	  341  281     40     68    583
20210112160739448	  339  283     36     70    582
20210112160739615	  339  285     37     74    589
20210112160739748	  337  285     34     74    589
20210112160739915	  335  285     31     75    592
20210112160740081	  333  287     28     78    593
20210112160740248	  334  288     29     80    592
20210112160740381	  333  287     28     78    595
20210112160740548	  332  288     26     80    594
20210112160740715	  331  289     25     82    596
20210112160740848	  331  289     25     82    596
20210112160741015	  331  289     25     81    595
20210112160741182	  343  280     42     66    578
20210112160741315	  349  276     50     58    566
20210112160741482	  358  266     62     42    551
20210112160741648	  369  255     76     25    536
20210112160741815	  379  241     88      5    522
20210112160741948	  387  231     97     -7    512
20210112160742115	  395  214    105    -30    501
20210112160742282	  405  201    116    -46    490
20210112160742415	  412  187    123    -63    486
20210112160742582	  420  168    132    -86    479
20210112160742749	  429  151    141   -106    474
20210112160742882	  431  141    143   -118    471
20210112160743049	  431  139    143   -121    472
20210112160743215	  432  133    144   -128    471
20210112160743349	  433  128    144   -133    469
20210112160743516	  435  124    147   -138    470
20210112160743682	  438  119    150   -144    468
20210112160743849	  439  118    151   -145    468
20210112160743982	  437  117    149   -147    469
20210112160744149	  439  115    151   -149    468
20210112160744316	  439  112    151   -152    467
20210112160744449	  440  111    153   -154    468
20210112160744616	  441  109    154   -156    468
20210112160744783	  443  109    156   -156    466
20210112160744949	  439  107    151   -158    467
20210112160745083	  439  108    151   -157    468
20210112160745249	  441  107    154   -159    468
20210112160745416	  443  106    156   -160    467
20210112160745583	  441  106    154   -160    468
20210112160745716	  439  103    152   -164    470
20210112160745883	  440  106    153   -161    470
20210112160746050	  440  106    153   -160    469
20210112160746183	  441  104    154   -162    468
20210112160746350	  441  104    154   -162    468
20210112160746516	  442  104    155   -163    469
20210112160746650	  444  102    157   -165    468
20210112160746816	  443  102    156   -165    468
20210112160746983	  441  101    154   -166    468
20210112160747116	  445  103    159   -164    469
20210112160747283	  446  100    160   -167    469
20210112160747450	  441  102    154   -165    470
20210112160747583	  443  100    156   -167    469
20210112160747750	  444   99    158   -169    469
20210112160747917	  440  100    153   -168    469
20210112160748050	  444  100    158   -167    469
20210112160748217	  444   95    158   -174    469
20210112160748383	  442  100    155   -168    469
20210112160748517	  445  104    159   -163    469
20210112160748684	  441  104    155   -163    471
20210112160748850	  440   99    153   -170    471
20210112160749017	  443   99    157   -169    471
20210112160749150	  443   99    156   -168    468
20210112160749317	  443   98    156   -170    468
20210112160749484	  441   97    154   -171    469
20210112160749617	  443   99    156   -168    468
20210112160749784	  443  102    157   -166    471
20210112160749951	  442   99    155   -169    468
20210112160750084	  443   99    157   -169    469
20210112160750251	  445   96    158   -172    468
20210112160750417	  444   96    157   -172    468
20210112160750551	  445   96    158   -172    468
20210112160750717	  449   94    164   -175    469
20210112160750884	  443   97    156   -171    468
20210112160751017	  444   98    157   -170    468
20210112160751184	  443   96    156   -172    467
20210112160751351	  443   96    156   -172    468
20210112160751518	  443   96    156   -172    468
20210112160751651	  443   96    156   -172    467
20210112160751818	  444   97    157   -171    468
20210112160751984	  444   95    157   -173    468
20210112160752118	  443   98    156   -170    469
20210112160752284	  444   96    157   -172    468
20210112160752451	  444   96    157   -172    468
20210112160752584	  444   94    157   -174    467
20210112160752751	  444   97    157   -171    468
20210112160752918	  445   95    158   -173    468
20210112160753085	  444   95    157   -173    469
20210112160753218	  443   95    156   -173    468
20210112160753385	  444   94    157   -174    468
20210112160753551	  442  107    155   -159    468
20210112160753685	  435  125    147   -137    470
20210112160753851	  431  137    144   -124    474
20210112160754018	  426  159    139    -98    480
20210112160754185	  418  171    131    -83    484
20210112160754352	  412  193    125    -56    492
20210112160754485	  402  206    115    -40    503
20210112160754652	  390  226    101    -14    514
20210112160754818	  376  241     85      5    529
20210112160754952	  369  255     77     26    541
20210112160755118	  354  271     57     50    560
20210112160755285	  344  280     44     66    580
20210112160755452	  343  281     43     68    583
20210112160755585	  338  283     35     71    585
20210112160755752	  338  285     35     74    589
20210112160755919	  335  285     31     74    589
20210112160756052	  334  286     29     76    591
20210112160756219	  336  286     32     76    591
20210112160756385	  333  288     28     80    595
20210112160756519	  334  289     29     82    595
20210112160756686	  335  288     31     80    597
20210112160756852	  333  289     28     82    595
20210112160757019	  335  288     31     80    598
20210112160757152	  334  287     29     78    590
20210112160757319	  345  278     45     62    574
20210112160757486	  355  270     58     48    558
20210112160757619	  363  260     69     33    545
20210112160757786	  372  250     79     18    531
20210112160757952	  383  237     92      0    518
20210112160758119	  391  221    101    -21    507
20210112160758286	  399  209    109    -36    495
20210112160758419	  409  194    121    -55    490
20210112160758586	  418  174    130    -79    481
20210112160758753	  425  158    137    -98    476
20210112160758886	  429  143    140   -116    472
20210112160759053	  432  137    144   -123    471
20210112160759219	  436  129    148   -132    468
20210112160759386	  436  127    149   -135    470
20210112160759520	  439  121    152   -142    469
20210112160759686	  438  118    150   -145    469
20210112160759853	  438  116    150   -148    469
20210112160800020	  442  113    155   -151    468
20210112160800186	  442  112    155   -152    468
20210112160800320	  440  110    152   -155    466
20210112160800486	  439  112    151   -153    468
20210112160800653	  438  112    150   -153    469
20210112160800787	  441  110    154   -155    468
20210112160800953	  442  107    155   -159    468
20210112160801120	  443  107    156   -158    467
20210112160801287	  442  107    155   -159    468
20210112160801420	  441  104    154   -162    468
20210112160801620	  440  105    153   -161    469
20210112160801753	  442  103    155   -164    468
20210112160801920	  444  101    157   -166    468
20210112160802087	  441  103    154   -164    468
20210112160802220	  440  105    153   -161    469
20210112160802387	  442  102    155   -165    469
20210112160802554	  444  104    157   -162    468
20210112160802887	  440   99    153   -170    471
20210112160803154	  446  103    160   -164    469
20210112160803354	  440   97    153   -172    471
20210112160803487	  442  101    155   -166    468
20210112160803654	  443  100    157   -168    469
20210112160803821	  444   97    158   -171    469
20210112160803987	  443   99    156   -169    469
20210112160804154	  443   96    156   -172    468
20210112160804321	  442  100    155   -168    469
20210112160804488	  442   95    153   -172    464
20210112160804621	  441   97    153   -170    466
20210112160804788	  439   94    151   -174    466
20210112160804954	  443   97    155   -170    466
20210112160805088	  442   95    154   -172    465
20210112160805254	  441   94    152   -173    463
20210112160805421	  440   93    151   -174    465
20210112160805588	  442   94    154   -173    465
20210112160805755	  442   94    154   -173    465
20210112160805888	  442   96    154   -171    466
20210112160806055	  441   94    152   -173    464
20210112160806255	  442   94    154   -173    465
20210112160806388	  439   91    151   -178    467
20210112160806555	  441   93    153   -175    466
20210112160806755	  441   93    153   -175    465
20210112160806921	  441   93    153   -175    466
20210112160807088	  441   93    153   -175    465
20210112160807255	  442   95    154   -173    466
20210112160807422	  441   92    152   -176    464
20210112160807588	  442   93    154   -175    466
20210112160807755	  441   92    152   -176    464
20210112160807888	  442   92    154   -176    466
20210112160808055	  442   93    154   -175    466
20210112160808255	  445   91    157   -177    464
20210112160808422	  441   91    153   -177    465
20210112160808589	  441   92    153   -176    466
20210112160808755	  442   92    154   -176    464
20210112160808922	  443   93    155   -175    466
20210112160809089	  442   92    154   -176    465
20210112160809255	  445   88    157   -180    464
20210112160809455	  442   91    154   -177    466
20210112160809622	  439  101    150   -165    465
20210112160809789	  432  122    144   -141    471
20210112160809956	  428  134    138   -126    469
20210112160810089	  423  153    134   -104    474
20210112160810289	  417  171    128    -82    479
20210112160810422	  409  187    121    -64    490
20210112160810589	  400  206    111    -40    496
20210112160810789	  386  229     96    -10    514
20210112160810956	  374  248     82     15    530
20210112160811089	  368  254     75     24    538
20210112160811256	  354  270     57     49    560
20210112160811423	  343  281     42     67    578
20210112160811589	  342  280     41     66    579
20210112160811789	  341  284     40     73    587
20210112160811956	  336  285     32     74    588
20210112160812123	  337  284     34     73    591
20210112160812289	  337  286     34     76    590
20210112160812456	  336  286     32     77    593
20210112160812623	  333  287     28     78    593
20210112160812790	  332  288     26     80    593
20210112160812956	  332  289     26     82    596
20210112160813123	  331  289     25     82    597
20210112160813290	  339  283     36     70    581
20210112160813456	  349  274     50     55    566
20210112160813623	  358  266     62     42    551
20210112160813790	  369  252     76     21    536
20210112160813990	  382  239     91      3    519
20210112160814157	  392  224    103    -17    508
20210112160814323	  402  206    114    -40    500
20210112160814490	  410  190    122    -60    489
20210112160814657	  418  174    130    -79    480
20210112160814823	  424  157    136    -99    476
20210112160815023	  431  138    142   -121    470
20210112160815190	  433  137    145   -123    471
20210112160815357	  433  131    145   -130    470
20210112160815524	  436  126    148   -136    470
20210112160815690	  438  123    150   -139    467
20210112160815857	  437  122    150   -141    470
20210112160816024	  437  121    149   -142    468
20210112160816224	  437  116    149   -148    469
20210112160816390	  437  116    149   -148    470
20210112160816557	  439  111    151   -153    467
20210112160816724	  440  110    152   -155    467
20210112160816891	  438  109    150   -156    468
20210112160817057	  440  106    152   -159    467
20210112160817224	  439  107    151   -158    467
20210112160817424	  441  105    153   -161    467
20210112160817591	  441  104    154   -162    467
20210112160817757	  442  103    155   -164    468
20210112160817924	  444  103    157   -163    468
20210112160818091	  442  102    155   -165    468
20210112160818258	  443  100    156   -167    469
20210112160818458	  442  103    155   -164    468
20210112160818624	  442  101    156   -167    470
20210112160818791	  442  102    155   -165    468
20210112160818958	  444   99    158   -169    469
20210112160819124	  446  100    160   -167    468
20210112160819291	  445   98    159   -170    468
20210112160819491	  446  100    160   -167    469
20210112160819658	  444   98    157   -169    467
20210112160819825	  442   96    154   -171    465
20210112160819991	  441   97    153   -170    465
20210112160820158	  442   96    154   -171    465
20210112160820358	  440   96    152   -172    467
20210112160820525	  434   98    146   -170    469
20210112160820692	  439   97    151   -170    467
20210112160820858	  441   94    153   -174    465
20210112160821025	  442   96    154   -171    465
20210112160821258	  441   95    153   -172    465
20210112160821425	  442   96    154   -171    465
20210112160821592	  441   93    152   -174    463
20210112160821759	  445   95    157   -172    465
20210112160821959	  443   94    155   -173    464
20210112160822125	  440   93    152   -175    466
20210112160822292	  441   93    152   -174    464
20210112160822459	  444   92    156   -175    464
20210112160822625	  441   93    152   -174    463
20210112160822792	  443   94    155   -174    466
20210112160822992	  442   93    154   -175    466
20210112160823159	  442   93    154   -175    466
20210112160823326	  446   94    159   -174    466
20210112160823492	  440   90    152   -178    465
20210112160823659	  442   94    154   -174    466
20210112160823826	  443   89    154   -179    463
20210112160824026	  445   90    157   -178    464
20210112160824193	  441   92    153   -176    465
20210112160824359	  443   91    155   -176    464
20210112160824526	  442   92    154   -176    465
20210112160824693	  442   92    154   -176    465
20210112160824859	  443   92    155   -176    464
20210112160825026	  443   88    155   -181    465
20210112160825226	  443   93    155   -175    466
20210112160825393	  445   90    157   -178    465
20210112160825560	  443   91    155   -177    464
20210112160825726	  439  105    151   -161    468
20210112160825893	  433  123    145   -140    470
20210112160826060	  430  140    141   -119    471
20210112160826226	  421  160    132    -96    477
20210112160826426	  413  183    124    -68    484
20210112160826593	  405  203    116    -43    491
20210112160826760	  391  217    101    -26    508
20210112160826927	  379  237     87      0    518
20210112160827093	  371  252     78     21    533
20210112160827260	  356  266     59     42    552
20210112160827460	  343  279     42     64    578
20210112160827627	  343  279     42     64    578
20210112160827793	  338  283     35     71    583
20210112160827960	  338  284     35     72    585
20210112160828127	  338  284     35     73    588
20210112160828294	  338  284     36     73    592
20210112160828494	  336  285     32     75    593
20210112160828660	  334  287     29     78    593
20210112160828827	  335  288     31     80    595
20210112160828994	  335  286     31     77    594
20210112160829160	  333  288     28     80    596
20210112160829327	  332  287     26     79    598
20210112160829494	  332  289     26     82    597
20210112160829694	  331  289     25     82    597
20210112160829861	  331  290     25     84    599
20210112160830027	  332  289     27     82    599
20210112160830194	  331  290     25     84    599
20210112160830394	  331  289     25     82    601
20210112160830561	  329  290     22     84    602
20210112160830727	  330  291     24     86    603
20210112160830894	  329  292     22     88    605
20210112160831061	  329  291     22     86    607
20210112160831228	  328  292     20     88    605
20210112160831428	  328  293     20     90    607
20210112160831594	  328  292     20     88    606
20210112160831761	  328  293     21     90    608
20210112160831928	  328  292     20     88    606
20210112160832094	  326  292     17     88    608
20210112160832261	  328  291     20     86    607
20210112160832461	  327  292     19     88    607
20210112160832628	  329  291     22     87    608
20210112160832795	  326  292     17     88    610
20210112160832961	  327  293     19     90    608
20210112160833128	  326  293     17     90    607
20210112160833295	  327  293     19     90    609
20210112160833461	  326  293     17     90    608
20210112160833662	  328  292     21     88    609
20210112160833828	  326  292     17     88    609
20210112160833995	  326  293     17     90    609
20210112160834162	  326  293     17     90    608
20210112160834328	  325  292     16     89    611
20210112160834495	  325  292     16     89    611
20210112160834662	  326  293     17     90    610
20210112160834862	  327  293     19     90    609
20210112160835195	  326  293     17     90    608
20210112160835362	  325  294     16     92    610
20210112160835829	  326  293     17     90    610
20210112160835995	  325  294     16     92    610
20210112160836162	  325  294     16     92    610
20210112160836362	  325  294     16     92    611
20210112160836529	  324  293     14     90    611
